{
    "KPlugin": {
        "Id": "rocs_rocs1fileformat",
        "Name": "Rocs File Format (old)",
        "Name[ca@valencia]": "Format de fitxer de Rocs (antic)",
        "Name[ca]": "Format de fitxer del Rocs (antic)",
        "Name[cs]": "Formát souborů Rocs (starý)",
        "Name[de]": "Rocs-Dateiformat (veraltet)",
        "Name[el]": "Τύπος αποθήκευσης αρχείων του Rocs (παλαιός)",
        "Name[en_GB]": "Rocs File Format (old)",
        "Name[es]": "Formato de archivo de Rocs (antiguo)",
        "Name[et]": "Rocsi failivorming (vana)",
        "Name[eu]": "Rocs fitxategi-formatua (zaharra)",
        "Name[fi]": "Rocsin tiedostomuoto (vanha)",
        "Name[fr]": "Format de fichier Rocs (ancien)",
        "Name[gl]": "Formato de ficheiro de Rocs (vello)",
        "Name[it]": "Formato di file di Rocs (vecchio)",
        "Name[ka]": "Rocs-ის ფაილის ფორმატი (ძველი)",
        "Name[ko]": "Rocs 파일 형식(이전)",
        "Name[nl]": "Rocs-bestandsformaat (oud)",
        "Name[pl]": "Format plików Rocs (stary)",
        "Name[pt]": "Formato de Ficheiro do Rocs (antigo)",
        "Name[pt_BR]": "Formato de arquivo do Rocs (antigo)",
        "Name[ru]": "Поддержка файлов графов Rocs 1 (старый формат)",
        "Name[sk]": "Formát súborov Rocs (starý)",
        "Name[sl]": "Vrsta datotek Rocs (stara)",
        "Name[sv]": "Rocs-filformat (gammalt)",
        "Name[tr]": "Rocs Dosya Biçimi (eski)",
        "Name[uk]": "формат файлів Rocs (застарілий)",
        "Name[x-test]": "xxRocs File Format (old)xx",
        "Name[zh_CN]": "Rocs 文件格式 (旧版)",
        "Name[zh_TW]": "Rocs 檔案格式（舊）"
    }
}
